<svg xmlns="http://www.w3.org/2000/svg" viewBox="0 0 512 512">
  <path fill="#0083be" d="M442.3 7.6H69.7C35.4 7.6 7.6 35.4 7.6 69.7v372.5c0 34.3 27.8 62.1 62.1 62.1h372.5c34.3 0 62.1-27.8 62.1-62.1V69.7c.1-34.3-27.7-62.1-62-62.1zM150.1 431.2H66.9V181h83.2v250.2zm-41.6-284.4h-.5c-27.9 0-46-19.2-46-43.2 0-24.6 18.6-43.3 47-43.3s46 18.7 46.5 43.2c0 24.1-18 43.3-47 43.3zM450 431.2h-83.2V297.3c0-33.6-12.1-56.6-42.1-56.6-23 0-36.7 15.5-42.7 30.4-2.2 5.3-2.7 12.8-2.7 20.3v139.8h-83.2s1.1-226.8 0-250.3h83.2v35.4c11.1-17 30.8-41.3 75-41.3 54.7 0 95.8 35.8 95.8 112.6v143.6z"/>
</svg>
